https://202.147.195.158:8080
https://202.152.55.67:80
https://36.66.61.119:8080
https://103.80.83.161:8080
https://114.6.197.254:8080
https://119.252.168.52:53281
https://103.131.16.123:8080
https://202.138.252.197:3128
https://175.184.232.74:8080
https://36.92.79.234:8080
https://150.107.143.173:9797
https://115.124.67.186:80
https://118.97.180.132:30793
https://202.75.97.82:47009
https://103.15.242.216:47424
https://118.97.36.21:8080
https://119.18.154.202:3128
https://36.91.119.243:9999
https://223.25.101.242:59504
https://203.24.50.141:80
https://182.16.162.89:32247
https://103.95.40.211:3128
https://36.91.88.166:8080
https://118.97.187.42:8080
https://103.94.121.27:60109
https://59.153.81.198:8080
https://36.66.133.19:8080
https://36.92.106.169:8080
https://180.250.49.138:8080
https://180.250.172.14:3128
https://36.72.228.77:8080
https://103.111.83.122:3128
https://203.77.239.22:37002
https://124.158.144.187:8080
https://103.245.182.9:8080
https://118.97.22.203:8080
https://146.196.108.78:8080
https://139.255.40.130:8080
https://103.75.27.86:8080
https://36.89.99.98:44030
https://36.89.119.149:8080
https://115.124.64.234:8080
https://36.67.76.234:8080
https://139.255.13.153:8080
https://43.245.184.238:8080
https://137.59.161.46:8080
https://36.92.68.141:8080
https://101.255.122.73:8080
https://36.91.51.233:3128
https://182.253.66.206:3128
https://103.111.55.58:9000
https://103.87.160.121:8080
https://103.111.55.58:3504
https://103.246.2.166:8080
https://101.128.68.113:8080
https://36.66.175.111:51498
https://101.255.125.10:8080
https://114.7.164.182:8080
https://202.137.25.8:8080
https://115.85.86.234:8080
https://36.89.135.203:8080
https://27.111.38.129:39850
https://115.124.75.225:8080
https://36.66.19.10:8080
https://103.134.213.51:8080
https://114.199.115.244:38509
https://158.140.169.104:8181
https://116.68.160.114:8080
https://203.142.76.171:3128
https://36.92.107.194:8080
https://103.75.27.74:8080
https://36.67.206.187:8080
https://36.66.140.15:8080
https://203.142.74.171:8888
https://27.54.118.90:8080
https://139.255.18.36:80
https://36.89.41.26:38718
https://120.89.95.118:8080
https://103.122.97.58:8080
https://36.92.125.37:8080
https://182.23.107.210:3128
https://115.85.86.235:8080
https://27.50.19.65:3128
https://36.89.181.161:50204
https://36.89.150.245:8080
https://203.189.88.249:8080
https://180.250.54.27:53281
https://117.102.127.130:8080
https://103.119.229.130:80
https://36.66.98.6:53281
https://203.77.239.18:37002
https://202.152.55.66:80
https://124.158.167.170:8080
https://103.111.55.58:7244
https://103.94.0.181:53439
https://103.78.80.194:33442
https://101.255.116.61:8080
https://118.97.164.19:8080
https://103.87.160.123:8080
https://36.66.124.157:8080
https://182.23.2.98:49833
https://116.254.100.165:46675
https://202.57.2.19:8080
https://103.28.226.125:32862
https://103.66.47.126:8080
https://66.96.237.111:80
https://103.245.182.1:8080
https://117.102.81.5:53281
https://180.250.216.242:3128
https://180.250.194.19:8080
https://36.91.144.227:8080
https://180.250.247.123:23500
https://115.85.83.197:8080
https://119.18.154.202:80
https://103.15.242.218:47424
https://118.97.180.142:30793
https://150.107.143.237:9797
https://139.255.99.164:50031
https://139.0.6.36:63141
https://112.78.169.98:36963
https://146.196.108.202:80
https://183.91.87.34:3128
https://103.94.7.254:53281
https://103.76.175.84:8080
https://175.106.17.98:80
https://36.89.28.250:3128
https://159.89.245.59:3128
https://103.83.205.57:38992
https://212.210.138.140:53281
https://122.102.41.82:55783
https://177.72.72.217:54468
https://178.33.226.107:3128
https://91.135.148.198:59384
https://31.173.94.93:59117
https://51.68.141.240:3128
https://159.89.113.32:3128
https://85.198.142.186:8081
https://184.180.90.226:8080
https://61.118.35.94:55725
https://131.196.87.198:3128
https://119.2.47.122:8080
https://190.104.255.8:8080
https://70.165.65.233:48678
https://178.168.19.144:30736
https://61.7.147.59:8080
https://138.219.251.104:3128
https://81.223.122.78:48982
https://93.93.61.93:53281
https://163.180.117.236:8080
https://136.228.160.250:8080
https://196.216.220.204:36739
https://105.112.8.53:3128
https://119.18.152.210:3127
https://213.6.149.138:41088
https://181.112.228.6:9991
https://110.74.195.215:44975
https://82.151.114.197:56208
https://103.6.104.105:38898
https://118.70.144.77:3128
https://92.253.181.236:80
https://195.53.237.122:3128
https://170.247.17.53:8080
https://70.169.150.186:48678
https://61.5.192.14:57243
https://185.128.104.33:8080
https://185.44.232.30:53281
https://121.122.43.161:52890
https://125.162.141.70:33100
https://118.175.93.189:49774
https://185.189.253.21:56630
https://103.251.58.52:35702
https://109.248.249.33:8081
https://176.124.188.3:57576
https://182.23.2.100:49833
https://200.111.182.6:443
https://94.21.118.140:61379
https://41.86.254.5:8080
https://46.52.166.241:8080
https://49.50.8.20:8080
https://176.103.45.24:8080
https://157.245.61.250:8080
https://183.182.101.32:56042
https://176.113.126.127:39921
https://163.172.190.160:8811
https://119.15.82.222:37790
https://159.224.182.206:35525
https://114.130.92.17:49167
https://49.48.46.113:8080
https://195.9.173.38:63141
https://177.207.142.156:8080
https://183.89.160.181:8080
https://36.92.63.122:8080
https://27.72.98.89:8080
https://177.21.110.254:3128
https://36.255.87.228:84
https://139.255.122.117:8080
https://80.254.48.93:3128
https://185.162.142.81:53281
https://180.246.137.235:8080
https://150.129.56.138:31111
https://208.114.192.126:8080
https://91.201.240.242:8080
https://130.180.196.43:57183
https://114.8.145.10:8080
https://161.199.130.1:8080
https://69.63.73.171:53281
https://2.139.189.242:8080
https://185.201.5.31:8080
https://186.194.120.72:8080
https://59.100.172.214:8080
https://182.52.238.119:40456
https://180.183.96.224:8080
https://181.10.45.170:999
https://117.102.81.4:53281
https://139.255.25.84:3128
https://138.121.136.153:8080
https://35.247.147.167:3128
https://180.252.236.35:8080
https://177.200.72.214:20183
https://176.193.255.162:8080
https://103.87.160.119:8080
https://190.128.112.106:44616
https://159.89.245.63:3128
https://36.89.191.217:56816
https://38.21.34.224:8080
https://168.194.15.142:48876
https://1.20.100.133:46755
https://45.224.151.37:3128
https://114.34.16.64:8080
https://104.248.169.145:8080
https://103.89.42.157:8080
https://124.121.124.161:8080
https://103.212.128.253:38458
https://83.97.111.202:41258
https://103.251.225.13:34052
https://1.20.103.196:42792
https://216.228.69.202:54085
https://185.17.18.133:53281
https://37.57.216.4:4444
https://138.204.179.162:44088
https://91.187.113.205:53281
https://124.122.253.65:8213
https://159.89.245.69:3128
https://193.193.240.37:45944
https://130.180.28.106:42036
https://119.110.204.62:8080
https://125.166.187.183:80
https://200.35.49.50:3128
https://193.150.117.12:8000
https://62.133.174.247:8080
https://191.37.183.209:60139
https://217.168.76.230:59021
https://103.54.29.28:8080
https://187.87.204.210:45597
https://103.16.71.227:84
https://68.183.191.140:8080
https://27.72.61.48:48455
https://202.162.222.254:9999
https://82.137.255.109:8080
https://190.151.94.3:46615
https://103.3.78.114:8080
https://85.113.38.197:8080
https://169.239.223.136:49027
https://36.255.87.226:84
https://223.27.145.113:8080
https://103.57.70.231:51774
https://109.248.249.29:8081
https://103.241.227.110:6666
https://46.241.120.230:32412
https://103.66.68.134:8080
https://187.45.13.190:54963
https://27.123.255.82:30029
https://199.195.248.24:8080
https://62.201.220.50:43031
https://117.121.205.253:8080
https://35.247.150.9:3128
https://103.46.233.186:83
https://14.207.140.241:8080
https://182.253.184.166:8080
https://154.73.109.121:53281
https://86.120.157.254:8080
https://89.24.126.164:80
https://122.176.65.143:39859
https://149.202.147.215:3128
https://138.68.53.44:8118
https://103.224.37.129:83
https://45.169.172.2:3128
https://200.115.48.82:3128
https://181.196.205.250:44321
https://118.103.233.103:8080
https://45.224.151.35:3128
https://103.28.149.107:3128
https://150.107.205.196:8081
https://118.99.95.5:8080
https://111.67.92.66:8080
https://203.150.128.124:8080
https://43.252.145.50:8080
https://36.66.127.99:8080
https://82.200.88.50:3128
https://131.255.135.8:8080
https://178.254.158.246:8888
https://36.37.183.214:45719
https://45.76.45.198:3128
https://186.10.82.22:52049
https://202.150.151.85:80
https://103.10.81.172:8080
https://110.164.73.134:8080
https://103.16.71.248:83
https://220.227.245.36:3128
https://179.14.134.1:8083
https://103.36.100.234:8000
https://205.185.115.100:8080
https://93.152.176.222:54136
https://36.90.44.187:8888
https://125.26.7.124:61642
https://169.57.1.85:80
https://177.11.114.10:3128
https://114.5.64.49:8080
https://119.82.252.71:30506
https://200.202.229.218:8080
https://103.247.22.220:8080
https://188.73.8.12:36047
https://103.57.37.128:8080
https://36.91.143.58:8080
https://46.52.213.194:61976
https://213.174.10.58:48691
https://167.172.30.177:3128
https://188.166.34.157:3128
https://36.92.156.161:80
https://103.119.144.206:8080
https://117.58.245.114:34208
https://159.192.140.232:8080
https://46.228.0.2:3128
https://51.79.38.73:9999
https://167.172.247.68:8080
https://103.225.206.22:31777
https://102.176.160.70:61279
https://182.253.244.134:8080
https://111.92.164.242:47009
https://212.92.204.54:8080
https://116.58.226.239:8080
https://110.74.222.159:40348
https://92.247.97.159:41258
https://103.36.124.121:54803
https://189.124.94.189:8080
https://122.252.253.241:60956
https://31.209.97.66:57482
https://183.87.14.250:44915
https://77.94.112.234:32222
https://36.89.182.193:39382
https://181.143.79.154:48749
https://163.172.154.72:8811
https://152.204.128.46:44335
https://165.227.78.104:8080
https://197.210.134.66:8080
https://118.69.140.108:53281
https://202.166.220.150:32324
https://213.96.245.47:8080
https://103.253.113.54:80
https://103.14.235.26:8080
https://203.189.142.23:53281
https://95.58.161.180:48021
https://95.135.142.198:8080
https://91.240.97.133:40281
https://36.66.61.7:56232
https://89.223.80.30:8080
https://41.217.40.162:8080
https://110.5.102.238:8082
https://85.238.167.170:42397
https://81.161.61.110:30432
https://79.137.42.28:3128
https://37.152.190.107:808
https://42.201.228.29:8080
https://43.225.186.21:80
https://46.235.53.26:3128
https://212.66.61.118:37141
https://51.158.98.121:8811
https://49.48.144.66:8080
https://190.85.115.78:3128
https://185.7.168.175:8080
https://195.230.115.241:8080
https://37.18.74.220:8080
https://200.37.231.66:8080
https://181.119.7.129:8080
https://203.142.68.141:3128
https://185.200.36.91:8080
https://198.98.55.168:8080
https://198.98.58.178:8080
https://182.253.106.13:3128
https://185.80.130.50:80
https://175.176.185.106:3129
https://84.47.136.146:8080
https://83.169.208.183:47371
https://173.212.216.52:3128
https://138.197.106.207:8080
https://118.99.103.135:8080
https://1.4.221.25:8080
https://179.108.187.9:8080
https://68.183.191.213:8080
https://68.183.201.206:8080
https://77.70.115.104:8080
https://68.183.201.206:3128
https://80.254.126.161:3128
https://68.183.59.189:8080
https://177.67.217.30:61416
https://36.80.222.19:8080
https://46.246.4.2:3128
https://68.183.201.206:80
https://68.183.125.104:8080
https://45.70.14.74:3128
https://49.145.60.152:8080
https://27.145.195.182:80
https://51.158.68.26:8811
https://51.158.120.84:8811
https://68.183.105.214:8080
https://51.158.68.133:8811
https://51.158.123.35:8811
https://51.158.99.51:8811
https://213.108.156.113:8080
https://51.158.119.88:8811
https://51.158.106.54:8811
https://51.158.113.142:8811
https://51.91.212.159:3128
https://5.1.53.46:8080
https://51.158.111.229:8811
https://51.158.108.135:8811
https://203.189.137.106:8080
https://34.90.113.143:3128
https://209.97.179.94:8080
https://208.255.161.107:8180
https://190.93.176.70:8080
https://103.88.234.58:32413
https://176.117.126.22:8080
https://200.255.122.170:8080
https://190.166.249.44:38403
https://198.98.54.241:8080
https://188.166.2.208:8080
https://124.248.190.162:8080
https://14.207.200.137:8080
https://188.166.161.208:8080
https://182.253.232.62:3128
https://178.128.100.5:8080
https://79.140.23.42:3128
https://180.210.201.57:3130
https://178.128.91.155:8080
https://187.44.1.167:8080
https://157.245.197.217:8080
https://177.105.209.42:20183
https://180.210.201.54:3128
https://167.172.35.224:8080
https://167.71.83.150:3128
https://173.249.42.83:3128
https://157.245.153.50:8080
https://180.210.201.55:3129
https://157.230.250.116:8080
https://157.245.62.226:8080
https://142.93.72.206:3128
https://80.87.178.68:8080
https://165.227.248.222:3128
https://5.135.188.219:54321
https://157.245.54.178:8080
https://157.245.199.136:8080
https://103.235.199.46:31611
https://157.245.52.61:8080
https://157.245.54.173:8080
https://157.245.48.21:8080
https://167.172.62.34:8080
https://157.245.54.87:8080
https://167.172.56.231:8080
https://165.22.207.119:8080
https://142.93.184.47:8080
https://115.74.213.139:8080
https://70.35.213.229:36127
https://167.172.62.1:8080
https://128.199.241.212:8080
https://163.172.152.52:8811
https://163.172.147.94:8811
https://163.172.136.226:8811
https://103.76.253.154:3128
https://91.215.176.237:8080
https://159.203.16.170:8080
https://175.139.179.65:39924
https://124.41.240.43:47520
https://193.68.200.85:32070
https://125.25.145.96:8080
https://181.143.204.2:8080
https://134.209.98.103:8080
https://159.203.163.19:3128
https://139.59.158.216:8080
https://43.225.195.90:50878
https://124.122.82.126:80
https://203.170.76.6:58576
https://115.127.115.226:8080
https://92.242.254.22:8080
https://117.206.83.46:39884
https://136.243.47.220:3128
https://203.122.50.94:8080
https://142.93.150.5:8080
https://104.248.88.167:8080
https://178.128.82.56:8080
https://212.28.237.133:32529
https://110.78.147.202:80
https://125.25.33.49:8080
https://104.248.157.119:8080
https://196.22.221.2:56035
https://194.247.191.136:8080
https://1.10.244.204:8080
https://118.99.73.16:8080
https://125.27.251.57:41425
https://203.150.148.222:8080
https://142.93.152.141:8080
https://3.212.166.202:3128
https://5.133.111.174:3128
https://142.93.122.133:8080
https://89.162.184.18:80
https://177.125.150.128:8080
https://203.177.135.133:8080
https://203.112.76.193:8080
https://202.74.243.38:32449
https://202.69.38.82:8080
https://202.5.56.71:8080
https://202.43.115.145:8080
https://202.40.186.162:8080
https://202.21.105.115:80
https://202.179.7.182:56506
https://202.176.184.95:8080
https://202.162.211.46:30161
https://202.152.27.75:8080
https://202.142.155.146:8080
https://202.141.227.18:8080
https://202.138.253.235:8080
https://202.138.248.85:8080
https://202.138.127.66:80
https://202.128.22.29:48678
https://201.72.97.40:8080
https://201.49.89.221:8080
https://201.236.200.243:8080
https://201.219.213.197:999
https://201.217.71.122:8080
https://201.214.89.70:8080
https://201.20.106.186:8080
https://200.69.70.134:9991
https://200.69.67.174:8080
https://200.195.148.18:3128
https://200.178.251.146:8080
https://200.17.137.40:3128
https://197.221.89.70:8080
https://196.2.14.250:41612
https://195.82.116.230:8080
https://195.138.72.84:55126
https://195.123.212.199:34778
https://194.213.217.254:8080
https://194.190.5.174:3128
https://193.106.192.149:53281
https://192.140.42.81:40242
https://191.33.224.210:3128
https://191.102.106.1:8181
https://190.92.49.158:8080
https://190.68.37.98:8080
https://190.57.171.58:3128
https://190.248.153.162:8080
https://190.214.27.46:8080
https://190.115.3.65:8080
https://190.111.231.8:8080
https://190.104.47.18:8081
https://189.84.210.214:3128
https://189.204.241.44:56792
https://189.115.92.71:80
https://188.94.225.141:8080
https://188.43.225.109:8080
https://188.242.224.144:56391
https://188.240.127.195:8080
https://188.235.107.7:60205
https://188.187.62.173:80
https://188.187.0.158:8080
https://188.169.87.246:8080
https://188.128.63.210:8080
https://188.113.182.71:3128
https://188.0.96.49:59378
https://187.62.209.155:8080
https://187.12.157.82:8080
https://187.109.181.76:8080
https://187.1.32.13:8080
https://185.50.166.224:8080
https://185.218.191.4:8080
https://185.151.151.166:3128
https://185.146.113.157:8080
https://185.143.43.34:8080
https://185.142.208.111:55443
https://185.135.196.22:8080
https://185.128.104.73:8080
https://185.128.104.1:8080
https://183.89.162.27:8080
https://183.89.116.166:8080
https://183.88.56.245:8080
https://183.88.212.141:8080
https://183.88.195.73:8080
https://182.53.197.87:50259
https://182.53.197.223:8080
https://182.52.51.59:38238
https://182.52.238.44:37758
https://182.253.6.6:8080
https://182.253.31.149:8080
https://182.253.201.66:3128
https://182.180.116.54:8081
https://181.65.186.226:8080
https://181.211.38.62:47911
https://181.115.168.99:53281
https://181.114.63.129:8085
https://180.211.134.158:23500
https://180.183.128.154:8080
https://180.151.83.118:8080
https://178.62.232.133:8080
https://178.62.232.133:3128
https://178.238.126.91:8080
https://178.219.118.156:8080
https://177.75.193.217:53281
https://177.224.90.29:8080
https://177.221.95.118:8080
https://177.221.200.154:53281
https://177.207.230.93:8080
https://177.206.86.205:3128
https://177.124.50.130:8080
https://177.10.232.124:8080
https://177.10.201.220:8080
https://176.74.134.6:53281
https://176.197.145.162:8080
https://176.113.157.149:31195
https://176.108.47.38:3128
https://175.41.44.43:52581
https://175.101.81.250:8080
https://173.175.213.164:3128
https://171.4.89.88:8080
https://171.100.102.154:30090
https://170.233.235.249:3128
https://170.0.54.254:8080
https://169.239.51.218:8080
https://167.99.90.65:8080
https://167.172.56.165:8080
https://167.172.120.21:3128
https://166.159.90.56:53281
https://165.98.53.38:35332
https://165.22.48.4:8080
https://165.22.111.167:8080
https://163.53.182.148:54250
https://163.172.87.9:3128
https://159.203.87.130:3128
https://157.245.49.23:8080
https://157.245.203.155:8080
https://157.245.124.217:3128
https://154.127.120.18:30280
https://154.0.155.205:8080
https://152.231.26.42:8080
https://150.107.207.137:61954
https://148.217.94.54:3128
https://143.0.245.9:48158
https://142.93.130.169:8118
https://14.99.38.225:8080
https://14.207.208.191:8080
https://14.207.125.88:8080
https://14.207.120.193:8080
https://139.255.74.125:8080
https://139.255.34.178:3128
https://139.255.31.26:3128
https://139.255.25.85:3128
https://139.255.123.194:4550
https://139.162.98.77:3128
https://138.94.52.242:8091
https://138.219.147.197:53281
https://138.197.5.192:8888
https://138.0.207.18:58566
https://136.169.214.113:8080
https://131.108.75.130:8080
https://125.62.193.218:84
https://125.27.251.79:60832
https://125.26.99.212:51591
https://125.25.82.191:8080
https://125.25.80.39:42790
https://125.25.165.106:43730
https://125.167.172.103:8080
https://124.120.236.77:80
https://123.201.21.234:8080
https://120.29.124.131:8080
https://120.138.117.102:59308
https://119.82.252.98:8080
https://119.252.168.50:53281
https://119.2.51.150:8080
https://119.15.95.198:8080
https://118.99.100.166:8080
https://118.67.219.153:8080
https://118.174.211.220:11
https://118.172.51.110:36552
https://117.4.243.97:8080
https://117.254.57.52:8080
https://117.242.147.73:46827
https://114.5.39.100:8080
https://110.78.168.50:8080
https://110.78.147.202:8080
https://110.77.200.20:8080
https://110.74.222.185:54351
https://110.5.100.130:56998
https://110.169.96.118:8213
https://110.164.73.132:8080
https://108.61.186.207:8080
https://104.244.77.254:8080
https://103.99.177.248:443
https://103.9.188.151:38439
https://103.81.77.33:82
https://103.80.83.71:8080
https://103.80.210.110:8080
https://103.72.218.158:8080
https://103.26.54.94:8080
https://103.255.53.98:55969
https://103.251.225.16:6666
https://103.251.225.10:35101
https://103.250.68.193:51370
https://103.242.14.68:31127
https://103.233.153.126:8888
https://103.228.117.244:8080
https://103.21.150.184:3128
https://103.16.71.205:83
https://103.16.70.97:83
https://103.15.140.177:44759
https://103.14.198.53:83
https://103.14.198.145:83
https://103.117.213.76:59283
https://103.108.122.15:53281
https://102.68.17.96:8080
https://102.141.197.17:8080
https://101.51.245.144:8080
https://101.255.72.171:80
https://101.108.76.193:8080
https://101.108.110.2:8080
https://1.20.101.149:44778
https://1.2.248.166:8080
https://1.179.206.161:59033
https://1.179.183.109:8080
https://1.179.149.97:53243
https://1.10.189.68:60400
https://1.10.189.126:57959
https://1.10.141.220:34413
https://202.150.139.46:59979
https://185.128.37.2:8080
https://45.71.113.206:999
https://5.53.16.202:3128
https://103.86.43.27:8080
https://185.64.18.25:8080
https://188.255.187.226:8080
https://182.52.51.47:41146
https://187.190.220.91:8080
https://178.115.231.163:8080
https://178.214.228.144:80
https://182.52.51.35:60017
https://178.47.139.172:8080
https://178.134.155.82:48146
https://125.209.116.14:8080
https://103.241.204.225:8080
https://103.228.119.114:8080
https://103.212.128.228:36734
https://103.206.253.82:8080
https://103.16.71.249:84
https://103.16.71.245:82
https://103.110.109.19:3129
https://103.103.212.222:53281
https://102.69.32.1:8080
https://101.108.250.97:8080
https://1.0.189.54:8080
https://1.0.181.172:8080
https://62.210.124.248:3128
https://46.146.203.124:42031
https://45.70.58.162:999
https://222.127.15.61:3128
https://45.224.151.39:3128
https://185.51.36.152:41258
https://183.88.252.56:8080
https://182.52.51.53:60441
https://176.226.242.231:8080
https://103.21.77.234:808
https://89.30.96.166:3128
https://45.70.58.172:9991
https://51.158.111.242:8811
https://5.180.100.24:5000
https://46.49.121.187:52101
https://36.70.252.152:3128
https://43.255.228.150:3128
https://197.255.60.142:3128
https://186.183.220.2:8080
https://212.31.253.12:3128
https://23.237.173.102:3128
https://199.195.248.174:3128
https://190.144.110.22:8080
https://189.203.77.147:999
https://185.37.211.222:50330
https://183.88.17.98:8080
https://183.88.228.208:8080
https://182.23.103.6:3137
https://180.243.121.149:8080
https://182.253.121.22:23500
https://180.241.12.34:3128
https://180.183.136.50:8080
https://165.227.30.130:3128
https://177.22.24.66:3128
https://177.38.68.224:8080
https://124.158.164.38:8080
https://139.228.247.171:8080
https://138.122.143.200:3128
https://14.207.62.216:3128
https://163.172.128.177:8811
https://119.42.113.216:8080
https://103.231.218.126:53281
https://103.81.114.182:53281
https://103.9.188.39:8080
https://103.249.180.100:8080
https://103.93.52.93:9000
https://109.188.95.148:3128
https://114.129.17.51:9191
https://109.164.112.19:8080
https://109.226.207.105:8080
https://103.111.31.230:8080
https://103.106.119.154:8080
https://102.23.242.14:8080
https://101.51.106.70:45699
https://47.89.193.30:8118
https://103.21.42.58:23500
https://59.152.13.10:55340
https://46.35.249.189:43428
https://83.219.1.201:41380
https://124.120.236.77:8080
https://103.43.203.225:53281
https://111.118.128.140:41344
https://177.130.63.245:37188
https://91.92.10.112:8080
https://203.190.117.232:8080
https://176.36.111.9:61102
https://181.115.46.125:8080
https://103.204.171.202:53281
https://103.231.218.30:47568
https://182.23.2.104:49833
https://92.241.234.141:33647
https://194.8.146.167:52255
https://103.16.70.97:84
https://195.78.93.28:3128
https://41.193.50.102:35723
https://103.107.133.9:43683
https://5.131.240.7:80
https://89.204.214.142:8080
https://103.240.160.21:6666
https://61.19.40.50:57474
https://5.58.88.175:8080
https://103.16.71.234:82
https://91.150.189.122:55869
https://18.139.160.191:80
https://142.93.113.38:80
https://85.60.37.209:32275
https://190.42.189.63:8080
https://45.248.139.140:8080
https://87.251.228.114:31793
https://147.78.160.10:8080
https://1.186.40.9:54754
https://77.93.42.134:47803
https://197.211.39.16:33289
https://103.68.18.118:8080
https://203.190.116.140:56163
https://109.75.67.190:44151
https://177.129.207.23:8080
https://175.100.30.156:25
https://118.175.207.180:40017
https://24.113.42.169:48678
https://183.88.213.25:50440
https://78.60.203.75:60401
https://170.246.84.10:3128
https://37.220.195.14:53281
https://178.218.104.42:32829
https://103.243.132.62:30341
https://177.124.10.53:8080
https://118.174.232.44:38093
https://103.60.137.2:6133
https://194.135.75.74:55716
https://114.4.102.78:8080
https://101.109.105.71:8080
https://31.206.54.10:8080
https://103.105.40.1:16538
https://103.220.207.242:54349
https://200.54.108.54:80
https://103.215.177.180:80
https://194.152.235.171:8080
https://110.164.101.129:8080
https://196.22.201.51:8080
https://193.34.55.64:46558
https://200.69.67.36:8080
https://103.106.1.86:8080
https://194.67.92.81:3128
https://200.89.125.178:42483
https://190.104.255.9:8080
https://181.191.180.110:8080
https://203.172.185.122:55482
https://201.75.80.80:53281
https://125.25.165.97:39021
https://85.90.215.101:3128
https://83.1.197.221:8080
https://41.254.41.230:8080
https://103.21.92.18:61317
https://36.90.49.166:8181
https://103.208.152.34:37841
https://169.57.157.148:8123
https://115.127.64.58:39611
https://110.49.11.50:8080
https://58.27.217.75:3128
https://203.29.27.4:8080
https://43.248.24.157:51166
https://103.247.122.102:8080
https://191.102.95.94:9991
https://202.7.54.35:8080
https://103.239.5.101:8080
https://186.237.131.122:8080
https://178.134.71.138:35942
https://103.216.82.153:6666
https://179.40.75.1:38736
https://41.217.216.45:33602
https://95.216.120.27:8080
https://36.69.58.25:80
https://187.191.20.7:54375
https://187.109.37.53:20183
https://176.120.216.106:8080
https://212.95.180.50:53281
https://217.64.109.231:45282
https://43.250.127.98:9001
https://91.200.166.200:3128
https://27.147.225.2:42241
https://190.93.156.107:8080
https://187.111.160.8:42579
https://183.89.38.40:8080
https://89.29.100.240:3128
https://103.123.229.106:8080
https://103.25.168.22:38448
https://185.44.229.227:34930
https://103.111.218.23:8118
https://36.66.206.74:8080
https://212.24.148.234:60494
https://106.0.62.26:45847
https://176.110.121.90:21776
https://36.255.85.228:84
https://124.158.179.13:8080
https://123.200.26.22:48280
https://103.49.221.27:8080
https://103.72.216.194:38345
https://103.58.74.2:8080
https://165.16.74.159:8080
https://223.30.190.74:8080
https://88.255.217.166:8080
https://124.41.243.22:47894
https://185.17.134.149:60964
https://45.237.182.98:8080
https://177.92.67.230:53281
https://139.194.12.26:8080
https://185.128.104.117:8080
https://178.44.211.206:41258
https://103.12.161.196:35564
https://186.188.109.5:999
https://190.236.156.55:8080
https://186.206.144.130:3128
https://200.198.220.158:80
https://171.100.9.126:49163
https://177.67.8.223:48314
https://45.70.60.66:42656
https://190.163.227.95:8080
https://1.20.99.44:32119
https://43.225.164.59:57416
https://180.180.8.34:8080
https://190.248.68.18:8080
https://41.164.247.250:38460
https://81.163.46.198:53281
https://103.103.0.140:80
https://110.39.174.62:8080
https://212.154.83.104:35116
https://117.2.121.203:8080
https://182.253.168.250:8080
https://222.124.154.19:23500
https://180.183.26.31:8080
https://103.227.61.227:8080
https://36.37.180.59:65205
https://103.75.27.86:3128
https://89.42.133.58:8080
https://178.143.191.184:8080
https://37.221.204.206:47424
https://103.111.55.58:8800
https://187.44.167.78:60786
https://36.89.121.234:8080
https://203.190.53.45:53927
https://91.207.238.107:57164
https://105.27.245.235:8080
https://170.81.141.114:53281
https://103.58.249.92:23500
https://181.189.221.245:42407
https://178.75.27.131:41879
https://94.16.120.18:5555
https://79.104.8.150:8080
https://109.197.188.34:58080
https://180.183.3.161:8080
https://200.142.120.90:47860
https://95.181.37.114:39876
https://181.62.245.247:8080
https://177.185.93.77:8080
https://170.244.88.67:53281
https://31.133.57.134:41258
https://182.191.84.39:80
https://109.87.40.23:32444
https://213.6.65.30:8080
https://139.255.18.36:8080
https://185.37.213.76:30695
https://223.27.145.145:8080
https://41.164.247.186:53281
https://195.22.107.160:3128
https://77.37.249.149:35597
https://103.129.194.1:30335
https://37.145.184.104:8080
https://118.97.151.130:9090
https://181.209.101.195:999
https://103.141.123.6:41674
https://197.159.12.167:59369
https://14.207.75.87:8080
https://190.109.65.154:8080
https://5.149.205.141:8080
https://103.245.188.86:54385
https://41.85.191.6:57797
https://37.59.250.98:80
https://185.168.227.82:8080
https://85.238.98.160:34167
https://5.140.212.175:22129
https://154.72.197.106:49904
https://186.125.218.132:999
https://80.90.133.250:8080
https://212.13.98.62:49796
https://190.124.34.221:39501
https://178.47.139.151:35884
https://60.246.89.102:53281
https://46.246.93.89:8080
https://116.202.23.170:8080
https://103.53.72.20:53749
https://62.122.201.246:60619
https://49.48.41.244:8080
https://182.160.103.227:53281
https://191.102.88.218:3128
https://91.190.85.97:34286
https://77.232.186.2:8080
https://103.112.212.133:81
https://62.85.57.43:53281
https://85.143.254.20:8080
https://163.172.189.32:8811
https://64.254.232.199:80
https://124.41.240.171:42190
https://36.37.112.210:42883
https://190.128.203.214:3128
https://180.222.142.234:8080
https://110.232.64.171:4777
https://94.135.230.163:443
https://118.173.233.80:31559
https://187.95.114.125:3128
https://185.48.149.60:8080
https://1.179.144.181:80
https://45.4.85.83:999
https://101.51.137.97:80
https://181.143.157.242:50942
https://202.138.247.155:8080
https://118.174.65.172:8080
https://185.202.165.1:53281
https://91.148.72.225:37710
https://197.159.136.102:45557
https://185.54.237.114:3128
https://81.16.2.201:8080
https://202.134.191.156:8080
https://180.183.126.130:8080
https://163.172.219.130:443
https://168.194.14.126:8080
https://195.234.87.211:53281
https://103.14.199.225:83
https://103.61.101.74:30415
https://175.100.5.52:58588
https://103.112.212.69:83
https://177.86.158.102:38500
https://82.113.39.38:33915
https://177.159.238.114:3128
https://181.196.242.126:53281
https://182.93.80.85:8080
https://103.215.177.153:8080
https://187.191.20.4:54375
https://109.200.156.102:8080
https://182.253.91.45:8080
https://181.168.206.106:38024
https://95.79.99.148:3128
https://200.24.84.4:39136
https://41.169.151.90:46799
https://110.78.20.62:3128
https://195.228.65.108:52378
https://111.92.164.249:55184
https://95.84.168.158:42038
https://36.67.230.250:3128
https://78.25.112.42:47373
https://98.190.250.150:48678
https://96.80.89.69:8080
https://75.73.50.82:80
https://74.84.144.229:8080
https://74.214.177.61:8080
https://71.183.100.76:42413
https://68.183.191.41:8080
https://68.183.125.165:8080
https://68.183.123.186:8080
https://68.183.123.15:8080
https://67.75.2.39:3128
https://67.60.137.219:35979
https://66.90.255.99:8080
https://64.91.248.243:3128
https://54.177.219.83:80
https://50.201.51.216:8080
https://50.192.195.69:52018
https://47.56.9.58:3128
https://47.51.51.190:8080
https://47.254.34.44:3128
https://45.55.62.247:8080
https://34.240.97.171:3133
https://208.98.186.80:53630
https://192.119.203.124:48678
https://184.185.161.65:3128
https://18.162.224.160:80
https://172.245.173.20:80
https://167.86.96.4:3128
https://167.86.92.144:3128
https://165.227.220.35:3128
https://164.68.113.147:80
https://157.245.153.47:8080
https://149.28.79.30:3128
https://142.93.248.230:8080
https://142.44.184.205:80
https://138.197.208.170:3128
https://138.197.106.15:8080
https://104.248.226.203:8080
https://104.245.228.65:8080
https://51.15.165.143:80
https://91.121.76.179:80
https://37.58.160.75:80
https://199.247.15.100:80
https://51.15.76.119:3128
https://5.135.182.93:3128
https://51.68.61.17:80
https://51.38.71.101:8080
https://5.135.184.46:3128
https://90.183.101.238:43511
https://85.175.99.136:8080
https://58.8.192.204:8080
https://122.154.59.10:8080
https://89.28.164.55:8080
https://85.214.244.174:3128
https://178.128.50.214:8080
https://82.137.255.50:8080
https://82.114.241.138:8080
https://49.249.251.86:53281
https://61.19.35.14:8080
https://117.54.238.133:8080
https://125.27.242.129:8080
https://125.25.163.249:8080
https://46.4.153.184:8080
https://51.254.130.252:8118
https://43.229.73.160:8080
https://37.17.38.196:53281
https://36.90.163.154:3128
https://118.70.52.116:8080
https://104.244.75.26:8080
https://110.78.149.205:8080
https://36.92.93.107:8080
https://88.99.11.43:8080
https://182.53.96.215:32441
https://182.52.74.76:34084
https://182.53.197.21:52898
https://182.52.90.42:51657
https://182.53.197.156:34816
https://181.48.111.246:49094
https://27.147.179.232:8080
https://182.253.93.3:53281
https://181.113.225.114:8080
https://182.253.121.46:8080
https://180.94.64.114:8080
https://181.48.47.26:53281
https://180.211.193.74:40536
https://179.189.125.222:8080
https://180.241.222.123:8080
https://180.246.46.232:8080
https://178.69.191.120:34953
https://180.183.70.6:8080
https://178.76.69.132:45014
https://180.180.8.34:80
https://179.215.212.221:8080
https://180.183.123.127:8080
https://180.180.170.188:8080
https://180.183.137.227:8080
https://18.231.115.201:3402
https://177.84.63.74:3128
https://117.220.198.251:8080
https://177.54.200.2:57992
https://176.99.75.39:8080
https://116.58.248.119:8080
https://177.8.216.114:8080
https://177.66.221.5:8080
https://177.136.185.200:80
https://175.111.119.42:53465
https://178.128.54.11:8080
https://176.212.114.139:39581
https://176.241.137.95:53281
https://171.100.20.146:8118
https://170.82.231.26:56805
https://175.101.81.250:80
https://170.79.88.121:999
https://171.7.75.216:8080
https://174.127.155.118:32505
https://160.119.125.25:8080
https://195.138.83.218:53281
https://159.192.142.42:8080
https://167.179.4.134:8080
https://158.255.249.58:38914
https://159.192.104.53:8080
https://149.34.3.52:8080
https://143.255.52.102:31158
https://139.255.27.250:8080
https://138.97.12.150:37198
https://194.135.42.74:8080
https://134.249.117.3:8080
https://129.205.201.133:8080
https://129.205.98.54:8080
https://36.92.35.73:3128
https://125.26.7.114:30638
https://125.62.192.225:83
https://124.122.8.237:8118
https://125.27.37.119:8080
https://124.41.211.52:45657
https://125.25.57.40:8080
https://125.161.13.230:8080
https://124.6.140.66:8080
https://125.26.84.223:8080
https://124.41.211.188:59775
https://124.13.200.137:8080
https://124.122.145.233:8080
https://122.55.48.131:8080
https://122.201.23.122:35451
https://110.77.236.92:8080
https://118.175.93.25:31596
https://121.139.218.165:31409
https://119.82.253.123:48405
https://119.82.251.250:48603
https://119.82.252.29:51638
https://118.174.196.112:36314
https://185.136.150.201:54597
https://119.110.204.62:80
https://118.99.103.254:80
https://117.58.241.222:34208
https://117.102.119.150:47704
https://117.239.240.202:53281
https://185.94.215.235:53281
https://116.197.128.250:8080
https://187.1.174.94:20183
https://185.69.28.213:8080
https://114.134.191.194:31867
https://109.199.133.161:23500
https://103.250.152.22:52572
https://103.111.219.183:8118
https://110.39.169.18:8080
https://110.78.149.205:80
https://1.179.164.105:8080
https://185.36.157.30:8080
https://103.76.190.193:49939
https://103.216.82.146:35101
https://110.74.195.120:8080
https://113.161.196.196:8080
https://103.253.113.54:8080
https://103.16.71.48:84
https://103.138.226.35:3128
https://103.122.248.45:8080
https://103.116.167.243:8080
https://185.89.156.250:8181
https://103.244.228.26:8080
https://107.178.6.30:8080
https://1.10.188.203:45476
https://185.189.102.153:48130
https://185.5.223.49:8080
https://103.106.238.230:50941
https://103.216.48.81:8080
https://103.27.22.34:34220
https://103.16.71.234:83
https://103.10.62.238:8080
https://103.233.108.66:8000
https://1.10.231.219:8080
https://182.253.86.95:80
https://103.247.216.17:8080
https://1.179.147.5:39330
https://101.108.122.76:8080
https://103.31.45.174:8080
https://182.253.234.49:8080
https://101.255.87.178:80
https://103.252.117.100:8080
https://182.253.70.94:8080
https://182.253.209.205:3128
https://182.253.115.90:8080
https://112.78.181.196:8080
https://113.160.206.37:37194
https://101.108.157.237:8080
https://1.10.181.243:8080
https://1.179.131.69:8080
https://125.62.192.225:84
https://157.245.153.58:8080
https://46.0.203.186:8080
https://45.6.92.18:8080
https://36.83.178.169:8080
https://103.112.130.58:31094
https://36.89.145.162:88
https://183.88.106.76:8080
https://212.126.107.2:31475
https://103.62.235.100:8080
https://182.253.122.219:8080
https://70.89.113.137:443
https://185.5.19.234:52975
https://45.123.43.30:54570
https://119.82.253.210:42379
https://176.103.40.198:40039
https://190.242.41.133:8080
https://190.107.20.206:34626
https://203.76.124.35:8080
https://103.4.164.206:8080
https://185.131.60.103:53281
https://190.152.39.78:43548
https://58.9.182.62:8080
https://104.248.71.34:3128
https://114.33.189.29:34275
https://179.107.98.18:8080
https://43.245.202.110:58684
https://175.100.73.206:8080
https://93.92.50.27:8080
https://200.35.49.89:43006
https://62.148.67.110:81
https://200.16.132.195:999
https://125.26.7.115:30012
https://103.78.23.26:8080
https://177.237.62.60:8080
https://203.150.123.55:8080
https://176.235.99.37:9090
https://103.116.167.242:8080
https://45.70.200.128:999
https://103.36.32.67:8080
https://118.179.36.125:8080
https://182.160.117.130:53281
https://181.44.253.216:3128
https://181.114.224.42:8080
https://114.110.22.90:43221
https://190.61.41.165:8080
https://91.217.42.3:8080
https://185.128.104.81:8080
https://189.90.244.46:8080
https://190.3.117.18:8080
https://89.165.218.82:47886
https://200.123.2.171:3128
https://183.87.153.98:49602
https://212.8.104.86:3128
https://103.196.20.131:8080
https://31.216.188.107:46607
https://129.205.201.239:8080
https://92.114.234.206:46685
https://95.143.220.5:45939
https://73.138.75.151:8080
https://203.150.161.117:8080
https://103.112.129.162:31094
https://46.52.214.216:8080
https://103.87.48.57:8080
https://212.164.216.128:8040
https://62.201.230.37:48958
https://139.5.71.70:23500
https://176.119.157.147:3128
https://115.84.99.82:8080
https://86.110.191.166:8080
https://36.92.156.125:3128
https://83.13.16.166:58080
https://186.96.75.226:8080
https://36.68.192.22:8080
https://45.231.243.19:45265
https://181.211.167.206:37873
https://183.89.115.172:8080
https://190.152.0.130:55870
https://88.248.23.216:36426
https://103.70.145.211:8080
https://203.160.186.12:3128
https://197.148.64.194:8080
https://185.198.184.14:48122
https://103.25.47.130:8080
https://103.22.173.230:8080
https://62.182.109.206:41258
https://187.1.42.50:8080
https://185.128.104.65:8080
https://88.199.21.75:80
https://223.27.194.66:63141
https://89.31.46.208:8080
https://80.89.133.210:3128
https://36.90.21.10:3128
https://85.175.171.156:81
https://185.8.2.242:8080
https://80.32.122.118:46738
https://200.127.1.233:8080
https://138.0.229.209:33611
https://1.4.223.108:8080
https://179.97.30.46:53100
https://181.118.159.30:37399
https://170.79.95.119:8080
https://124.158.173.166:3128
https://185.204.208.78:8080
https://183.89.144.236:8081
https://151.22.181.253:8080
https://1.156.186.36:8080
https://79.106.45.177:8080
https://188.129.161.55:36631
https://118.175.93.103:51750
https://95.47.234.1:8080
https://45.175.139.87:999
https://36.76.17.41:8080
https://118.175.244.111:8080
https://187.190.236.137:3128
https://103.8.40.129:48542
https://103.137.192.17:83
https://103.106.58.141:51393
https://190.111.233.208:53281
https://155.133.83.91:8080
https://115.78.160.247:8080
https://125.209.116.234:39301
https://107.178.4.215:35168
https://1.9.216.226:36051
https://75.146.218.153:55768
https://175.213.132.85:8080
https://94.75.76.10:8080
https://82.208.72.169:3128
https://186.47.83.126:80
https://49.128.181.229:8080
https://89.19.199.152:53281
https://198.143.178.77:3128
https://43.242.242.196:8080
https://36.255.86.230:84
https://93.115.138.250:8080
https://191.241.167.254:41288
https://109.238.222.5:48487
https://46.171.2.211:3128
https://194.226.111.201:8080
https://165.16.96.93:8080
https://181.191.106.126:43716
https://186.1.5.35:55450
https://154.119.79.254:53281
https://125.162.64.99:8080
https://176.115.14.1:8080
https://213.6.101.174:23500
https://187.160.245.156:3128
https://182.253.252.29:8888
https://80.36.206.66:8080
https://112.78.162.148:8080
https://187.248.71.121:8080
https://125.27.251.249:50890
https://171.97.151.173:8080
https://187.188.159.157:999
https://213.129.53.80:8080
https://78.41.174.196:8081
https://86.62.120.68:3128
https://178.77.197.96:55555
https://186.148.170.138:8080
https://27.54.118.235:8080
https://49.156.42.188:8080
https://193.41.79.132:8080
https://178.219.171.43:45637
https://178.79.24.36:8080
https://105.247.171.202:8080
https://189.91.231.43:3128
https://207.148.119.0:8080
https://212.19.4.58:8080
https://118.185.252.132:8080
https://103.250.166.16:48340
https://217.113.18.68:81
https://138.201.106.88:8080
https://117.54.250.58:38508
https://202.67.8.214:8080
https://190.93.156.107:80
https://176.115.197.118:8080
https://170.84.49.230:53281
https://185.128.104.105:8080
https://195.239.115.106:44413
https://103.215.177.158:80
https://181.112.57.54:53281
https://36.82.246.97:8080
https://203.190.243.181:3128
https://179.95.235.138:8080
https://36.76.251.230:8080
https://36.89.182.47:51011
https://103.111.83.26:53861
https://70.89.113.138:443
https://36.255.87.231:83
https://177.87.79.249:8081
https://103.212.92.225:38448
https://186.15.233.218:45999
https://190.2.21.154:9991
https://78.108.110.113:8080
https://77.242.21.186:8081
https://46.146.209.132:61309
https://178.143.191.155:8080
https://202.62.84.210:53281
https://45.228.48.4:53281
https://203.192.217.11:8080
https://203.91.119.150:3128
https://124.158.167.242:8080
https://94.127.218.49:8080
https://134.0.63.134:8000
https://195.208.36.45:50366
https://190.149.221.250:49604
https://197.231.186.148:34591
https://91.191.250.142:31059
https://83.228.74.251:32384
https://110.172.135.234:31197
https://186.211.106.227:34334
https://175.100.72.95:58667
https://177.4.173.11:8080
https://147.135.3.105:999
https://42.112.209.164:8080
https://125.99.100.193:40390
https://103.139.181.5:8080
https://103.124.145.206:3128
https://96.9.69.164:53281
https://103.126.13.126:32413
https://202.169.37.126:31333
https://190.8.169.206:8080
https://185.128.104.117:08080
https://200.68.13.26:56000
https://61.19.145.66:8080
https://213.192.68.200:3128
https://183.89.185.234:8080
https://118.174.220.32:51399
https://36.91.45.10:50446
https://31.28.99.25:31098
https://103.15.242.215:47424
https://196.27.106.112:8080
https://170.82.73.140:53281
https://31.192.42.150:60174
https://103.16.133.17:8080
https://103.93.233.14:8080
https://110.44.120.144:8080
https://188.246.163.68:8080
https://212.77.138.161:41258
https://103.109.15.141:38097
https://187.111.160.29:40098
https://80.90.88.147:33617
https://109.74.142.138:53281
https://190.128.225.14:3128
https://190.221.217.117:8085
https://180.183.132.119:8080
https://31.131.67.14:8080
https://88.119.145.9:8080
https://119.252.169.173:8080
https://197.149.128.25:8080
https://178.77.238.2:8080
https://189.90.255.208:3128
https://95.79.55.196:53281
https://45.115.55.115:8080
https://46.105.123.30:3128
https://152.204.130.62:8080
https://202.29.220.34:42673
https://178.57.115.124:8080
https://212.142.226.229:39995
https://185.41.52.94:8000
https://119.82.253.24:44060
https://89.218.5.106:35286
https://186.10.80.122:53281
https://83.12.5.154:8080
https://92.255.205.227:30359
https://190.12.95.170:36002
https://36.37.113.4:36485
https://103.105.127.9:83
https://198.143.183.3:3128
https://70.165.64.33:48678
https://202.138.242.41:59199
https://200.5.125.37:8080
https://77.94.107.148:57786
https://200.110.174.130:8080
https://176.235.191.138:7070
https://213.33.248.60:8080
https://36.78.222.198:8080
https://103.57.70.248:52000
https://202.65.171.67:8080
https://110.74.199.16:63141
https://27.50.18.42:23500
https://109.188.132.86:8080
https://78.60.130.181:37968
https://170.247.152.163:60571
https://111.92.240.134:30598
https://159.192.97.80:43278
https://95.154.87.90:8080
https://200.69.83.50:9991
https://85.196.183.162:8080
https://181.52.237.106:58484
https://98.0.162.70:35576
https://154.117.155.42:48629
https://5.158.123.153:3128
https://110.34.3.145:80
https://181.143.237.99:8080
https://202.171.15.165:8080
https://31.220.183.217:53281
https://185.131.62.250:53281
https://103.58.251.188:37906
https://177.125.20.35:40744
https://74.83.246.125:8081
https://103.250.156.22:30093
https://177.74.239.26:3128
https://202.150.151.85:3128
https://181.115.46.124:8080
https://121.58.246.247:8080
https://200.225.198.170:3128
https://84.22.198.26:8080
https://197.210.153.126:51616
https://93.174.79.36:443
https://36.71.150.113:80
https://117.206.83.198:52071
https://104.248.238.10:8080
https://186.219.210.86:33668
https://190.104.255.13:8080
https://177.137.193.67:80
https://111.95.23.86:3128
https://103.106.114.134:8080
https://170.81.35.26:36681
https://93.87.28.158:53281
https://186.96.103.140:80
https://41.190.147.158:49088
https://170.246.84.9:3128
https://176.106.186.99:43750
https://101.109.255.246:52279
https://119.82.239.37:8080
https://137.74.116.74:3128
https://94.138.104.2:51060
https://69.10.47.65:8080
https://154.66.241.27:52004
https://180.246.9.37:8080
https://43.245.202.15:57396
https://181.115.168.69:49076
https://107.190.148.202:50854
https://5.167.235.102:8080
https://90.163.133.120:8080
https://91.236.7.126:3128
https://5.58.81.19:8080
https://95.154.104.147:57356
https://91.142.174.224:34009
https://91.205.51.27:49805
https://77.87.1.43:8080
https://65.182.5.212:8080
https://88.23.100.142:8080
https://81.4.255.25:3128
https://45.236.170.10:3282
https://45.71.193.195:3128
https://36.255.87.239:83
https://36.92.204.122:8080
https://36.91.43.218:8080
https://37.57.216.2:2222
https://36.65.102.194:8080
https://213.96.26.70:53855
https://203.128.72.146:8080
https://41.254.46.118:8080
https://27.145.236.21:8080
https://35.200.115.57:8080
https://203.150.153.26:8080
https://195.9.114.222:63141
https://197.248.184.158:53281
https://201.86.99.130:39900
https://183.89.38.18:8080
https://191.7.193.50:55590
https://183.88.20.168:8080
https://180.183.228.172:8080
https://176.241.89.170:31921
https://139.5.132.245:8080
https://170.247.18.238:8080
https://157.245.53.36:8080
https://124.122.52.128:8080
https://119.76.50.7:8080
https://118.99.88.163:3128
https://212.172.74.14:443
https://130.61.122.159:80
https://212.66.152.231:8080
https://109.175.10.239:8080
https://96.9.72.241:51738
https://103.36.81.19:49654
https://186.236.71.114:8080
https://74.85.156.94:8080
https://92.114.197.189:8080
https://85.114.96.154:38081
https://79.120.177.106:8080
https://91.210.47.93:3128
https://94.140.208.226:8080
https://89.238.255.34:8082
https://46.149.80.207:33588
https://91.192.4.162:8080
https://223.204.176.57:8080
https://51.158.68.68:8811
https://202.136.88.58:58025
https://180.183.3.36:8080
https://176.101.89.226:33470
https://186.47.82.6:41430
https://190.52.193.90:63141
https://151.248.63.153:8080
https://193.233.9.167:39396
https://212.2.204.181:60725
https://188.166.3.30:3128
https://51.38.34.40:3128
https://118.99.102.10:8080
https://138.122.140.35:3128
https://103.248.198.37:8080
https://83.142.148.78:33980
https://103.121.42.229:8080
https://5.39.101.15:8118
https://193.193.71.178:43857
https://200.114.85.65:8080
https://186.235.157.61:8080
https://45.189.226.3:8080
https://193.106.94.106:8080
https://103.36.126.14:43999
https://96.9.66.112:8080
https://77.242.25.143:8080
https://84.22.61.46:53281
https://177.220.188.213:8080
https://179.189.225.58:41881
https://176.117.255.182:53100
https://177.105.209.41:20183
https://80.87.217.6:8080
https://41.170.84.218:12354
https://178.188.67.190:8080
https://177.4.173.13:8080
https://181.114.224.193:8080
https://181.196.254.202:53281
https://181.57.198.102:46960
https://182.52.51.17:34871
https://182.253.130.5:3128
https://45.232.39.55:8080
https://185.173.245.127:35302
https://117.102.105.91:8080
https://178.215.190.239:60359
https://183.88.212.184:8080
https://185.122.104.171:53281
https://183.82.116.56:8080
https://187.18.125.34:3128
https://187.237.116.76:8080
https://186.42.124.130:65301
https://197.232.69.137:51365
https://187.4.201.134:8080
https://186.249.192.102:8080
https://140.227.74.14:3128
https://190.60.103.178:8080
https://191.163.159.9:8080
https://189.39.127.118:8080
https://190.136.182.204:999
https://27.2.7.59:52148
https://112.78.170.29:8080
https://94.228.21.66:30784
https://177.38.232.40:36442
https://80.91.17.113:41258
https://182.52.51.19:32558
https://185.34.17.248:58137
https://36.67.85.218:58670
https://36.67.89.179:65205
https://194.143.151.96:39072
https://75.80.242.9:41007
https://103.28.86.241:61954
https://62.4.60.50:53281
https://195.138.73.54:44610
https://197.245.230.122:48918
https://110.74.222.213:52733
https://109.75.46.202:42214
https://200.223.86.174:44525
https://200.116.198.177:49951
https://109.251.185.20:35935
https://178.219.175.128:44010
https://89.239.25.7:31964
https://92.86.10.42:42658
https://168.228.192.13:55619
https://93.109.241.246:37120
https://202.53.254.34:3128
https://202.21.98.150:60640
https://58.162.229.173:51536
https://81.162.243.249:8080
https://80.240.115.254:36539
https://43.252.18.140:54561
https://95.141.36.112:8686
https://91.241.152.242:53281
https://90.188.229.62:8080
https://49.156.45.181:8080
https://36.66.107.219:8090
https://52.187.121.7:3128
https://45.70.213.15:55443
https://191.241.226.230:53281
https://27.145.53.145:8080
https://188.72.6.98:49507
https://201.54.31.14:55282
https://119.76.18.203:8080
https://169.57.1.84:80
https://103.193.18.194:8080
https://138.117.85.217:8080
https://103.207.82.114:8080
https://14.207.24.160:8080
https://139.59.59.189:3128
https://52.207.244.140:8080
https://51.91.96.184:3128
https://103.194.192.29:38889
https://5.9.73.93:8080
https://5.59.105.17:39266
https://5.58.52.231:8080
https://5.133.24.186:8888
https://5.133.24.117:8080
https://202.138.252.197:80
https://201.20.80.113:8080
https://201.20.107.94:8080
https://201.182.151.228:999
https://201.182.120.230:8080
https://103.11.107.67:53398
https://200.97.128.19:8080
https://95.181.131.199:47673
https://187.188.182.87:9991
https://92.46.126.55:59086
https://138.0.229.213:33611
https://151.248.63.154:8080
https://185.61.92.228:33060
https://139.5.71.80:23500
https://140.227.31.224:6000
https://200.69.86.196:9991
https://45.224.98.121:8080
https://200.69.70.134:999
https://123.49.2.146:8080
https://200.54.247.98:8080
https://82.114.82.145:8080
https://200.4.218.108:8080
https://200.240.244.7:8080
https://200.199.114.226:33932
https://200.186.54.17:58855
https://200.150.86.138:44677
https://80.87.213.45:8080
https://200.122.213.27:8080
https://200.116.198.148:53634
https://103.227.60.130:8080
https://200.0.46.50:37232
https://198.204.253.115:3128
https://197.232.55.224:46811
https://197.232.36.43:8080
https://197.155.83.17:8080
https://110.76.129.106:59570
https://46.99.175.91:8080
https://46.73.33.253:8080
https://196.216.220.196:8080
https://196.196.64.98:3128
https://196.196.64.91:3128
https://196.1.184.6:53791
https://195.98.78.180:50018
https://195.88.16.155:36141
https://46.24.85.74:52657
https://167.172.27.253:3128
https://118.174.220.61:60070
https://43.249.140.230:8080
https://103.58.116.94:8080
https://195.182.152.238:38178
https://77.66.203.114:33097
https://195.112.252.180:49044
https://45.77.241.61:80
https://194.60.239.107:53281
https://194.204.63.32:80
https://202.73.24.193:8080
https://193.37.192.243:8080
https://45.70.14.198:9991
https://45.7.134.28:999
https://193.200.151.158:57532
https://193.176.212.195:8080
https://193.142.219.75:33940
https://118.91.175.210:8080
https://191.98.184.122:43144
https://191.5.0.79:53281
https://160.16.218.54:80
https://191.36.244.230:51377
https://45.226.20.6:8080
https://45.224.173.254:8080
https://45.224.151.90:3128
https://45.224.151.196:999
https://45.222.124.31:80
https://191.241.34.210:8080
https://45.186.60.6:8085
https://45.175.112.142:8080
https://113.53.83.157:8080
https://45.124.169.59:8080
https://191.103.219.225:48612
https://45.112.127.23:8080
https://212.220.105.48:80
https://190.92.49.155:8080
https://203.150.172.151:8080
https://190.6.200.158:38256
https://190.57.143.66:50719
https://42.115.88.12:46067
https://190.52.196.238:999
https://190.5.95.38:8080
https://190.5.118.46:8080
https://190.5.118.42:8080
https://41.66.75.106:8080
https://190.4.31.37:8080
https://78.30.192.84:32506
https://45.250.226.14:8080
https://190.191.163.147:8080
https://190.18.207.58:53281
https://190.152.125.250:51699
https://190.149.212.170:58043
https://190.145.200.126:53281
https://190.124.31.190:8080
https://41.216.230.148:41351
https://190.121.158.122:8080
https://190.119.187.195:8080
https://41.188.5.110:8080
https://41.169.78.42:49848
https://40.114.32.248:80
https://134.209.104.197:3128
https://189.50.145.18:8080
https://202.138.252.197:443
https://202.138.252.197:8000
https://69.9.238.22:8080
https://37.75.72.45:8080
https://188.235.255.70:32994
https://188.227.195.69:8080
https://37.18.74.218:8080
https://177.54.144.214:80
https://177.200.83.238:8080
https://117.103.168.62:8080
https://188.133.137.9:8081
https://31.202.30.118:54547
https://187.73.68.14:53281
https://187.62.220.89:8080
https://187.62.195.145:8080
https://36.92.88.52:8080
https://187.45.147.193:3131
https://113.161.186.101:8080
https://36.91.30.81:8080
https://187.191.20.11:54375
https://187.188.190.217:999
https://46.98.77.54:53281
https://187.188.182.87:999
https://36.90.97.184:8080
https://36.90.51.228:8181
https://36.89.76.119:43810
https://186.96.114.186:9991
https://36.89.193.109:47040
https://36.89.192.115:53219
https://36.89.19.130:8080
https://186.47.17.70:40437
https://36.66.235.147:57550
https://36.89.182.3:34230
https://186.206.144.130:80
https://36.89.180.169:8080
https://36.89.148.161:8080
https://186.250.56.135:8080
https://203.150.128.9:8080
https://186.232.15.9:45849
https://186.219.255.246:40307
https://186.193.26.106:3128
https://186.188.109.6:999
https://36.75.212.101:8080
https://134.249.158.34:81
https://86.57.219.180:23500
https://36.67.96.7:37554
https://185.56.219.190:80
https://36.67.84.235:8080
https://13.235.143.197:80
https://36.67.20.71:8080
https://185.242.180.219:8080
https://36.67.198.35:3128
https://185.189.199.75:23500
https://36.66.253.181:51365
https://185.158.127.9:53281
https://36.66.242.146:43936
https://115.178.25.162:58903
https://91.225.166.210:8080
https://45.113.67.69:8080
https://128.199.139.163:8085
https://184.82.128.211:8080
https://223.27.196.18:8080
https://183.89.44.127:8080
https://183.89.185.57:8080
https://183.89.158.107:8080
https://183.89.156.170:8080
https://36.37.81.135:8080
https://183.88.3.99:8080
https://183.88.240.126:8080
https://183.88.2.163:8080
https://93.117.72.27:53973
https://27.147.183.49:8080
https://36.255.86.231:84
https://36.255.85.232:83
https://181.129.181.250:53539
https://125.132.204.216:8080
https://182.74.40.146:30909
https://182.53.26.8:8080
https://182.53.206.198:8080
https://31.209.103.77:8080
https://182.52.238.111:30098
https://187.1.32.34:8080
https://103.43.43.103:51685
https://3.134.62.195:80
https://27.72.75.227:8080
https://27.72.29.159:8080
https://102.164.214.225:45528
https://27.145.78.11:8118
https://27.131.188.26:8080
https://27.123.7.82:8080
https://182.253.223.138:8080
https://182.253.172.136:8080
https://43.227.128.6:81
https://163.53.206.145:8080
https://182.253.121.23:8080
https://182.253.115.66:57733
https://176.235.99.75:9090
https://117.2.165.12:8080
https://103.220.204.101:59570
https://182.160.99.251:8080
https://190.52.205.102:999
https://181.49.131.82:8080
https://103.127.36.166:8080
https://36.67.80.19:8080
https://181.115.38.146:8080
https://103.137.192.125:84
https://181.112.228.6:999
https://181.112.216.54:41977
https://180.254.182.71:8080
https://181.49.59.246:8080
https://180.250.197.91:8080
https://95.84.231.36:8080
https://180.250.197.188:38216
https://95.78.174.219:60473
https://94.180.252.19:8080
https://180.211.193.214:8080
https://95.174.109.43:36131
https://95.158.62.178:51332
https://180.189.168.66:3129
https://180.183.67.120:8080
https://94.28.78.248:8080
https://18.217.169.249:80
https://94.20.21.37:3128
https://94.180.249.187:38051
https://180.179.98.22:3128
https://83.168.89.59:33058
https://93.76.211.56:50743
https://93.174.79.36:1080
https://92.55.59.38:41631
https://92.52.204.23:55216
https://92.244.36.73:47150
https://92.114.157.242:80
https://187.45.123.118:8080
https://179.191.54.212:8080
https://179.189.27.28:8080
https://91.230.11.164:8080
https://91.226.5.245:32238
https://179.155.176.254:8080
https://179.108.169.71:8080
https://91.207.184.112:53281
https://178.75.21.109:36143
https://91.205.131.110:48245
https://178.250.92.18:8080
https://178.219.163.231:8888
https://41.193.12.65:42313
https://178.217.216.184:49086
https://45.175.239.254:999
https://178.213.130.101:52658
https://89.46.207.214:8080
https://89.40.59.174:8080
https://178.132.220.241:8080
https://89.32.227.230:8080
https://89.29.93.86:8080
https://177.91.254.131:8080
https://89.189.174.121:52636
https://177.91.111.233:8080
https://177.71.77.202:20183
https://177.69.83.29:8080
https://88.99.11.16:8080
https://177.4.173.10:8080
https://88.87.79.20:8080
https://88.87.72.72:8080
https://177.38.243.102:8080
https://190.61.44.93:999
https://177.184.192.50:3128
https://88.149.203.30:46909
https://177.152.143.74:8080
https://177.136.252.7:3128
https://88.118.131.30:34850
https://177.130.140.80:8080
https://87.251.238.156:45083
https://87.250.218.12:33759
https://86.124.89.80:49038
https://85.237.46.168:54328
https://176.98.75.120:33874
https://85.198.250.240:8080
https://185.86.134.35:8080
https://85.187.17.39:53281
https://170.247.156.71:80
https://27.72.72.48:35839
https://84.53.247.204:53281
https://103.106.148.209:30223
https://84.42.62.141:8080
https://176.235.99.33:9090
https://95.84.128.25:33765
https://176.235.80.103:9090
https://176.223.51.237:43861
https://176.196.84.138:51336
https://84.214.150.146:8080
https://84.201.170.222:3128
https://176.120.59.85:8080
https://91.200.114.58:33800
https://91.192.4.169:8080
https://83.174.203.222:43399
https://83.171.114.92:37266
https://83.17.171.250:57087
https://176.110.154.59:57830
https://94.189.132.47:8080
https://88.102.13.246:39454
https://87.247.3.234:52098
https://36.89.189.11:30132
https://87.247.19.126:53353
https://138.219.249.12:3128
https://86.110.189.118:56710
https://85.187.247.58:53281
https://85.173.165.36:46330
https://81.33.4.214:61711
https://36.67.158.49:65301
https://81.190.208.52:47739
https://190.210.8.91:8080
https://81.183.43.28:8080
https://81.174.11.227:34167
https://81.174.11.159:47164
https://81.163.62.136:41258
https://81.163.62.221:34011
https://81.149.223.101:8080
https://173.249.35.163:655
https://173.242.102.241:53603
https://78.186.111.109:8080
https://173.212.238.182:5014
https://173.197.169.6:8080
https://80.82.55.71:80
https://103.78.73.34:80
https://80.28.243.202:45427
https://80.251.55.196:8080
https://219.85.175.245:80
https://80.250.20.190:8080
https://171.96.106.32:8213
https://80.188.239.106:39271
https://103.250.157.43:38641
https://218.161.36.89:53438
https://85.90.222.215:8080
https://79.104.25.218:8080
https://217.19.209.253:8080
https://217.169.209.237:8090
https://78.47.162.30:3128
https://78.45.8.179:3128
https://78.37.27.139:34051
https://139.255.69.150:80
https://78.29.42.10:4550
https://178.33.150.97:3128
https://78.188.173.54:8080
https://46.151.60.99:30428
https://46.39.245.204:54108
https://170.0.48.38:37857
https://92.51.40.1:8080
https://46.232.132.249:53769
https://27.111.43.17:80
https://46.151.253.254:53281
https://169.57.157.148:80
https://77.70.65.131:22
https://169.57.157.146:80
https://77.38.21.239:8080
https://188.166.3.193:80
https://77.238.79.111:8080
https://45.112.57.230:61222
https://202.129.196.242:53879
https://77.120.3.159:8080
https://177.185.32.1:8080
https://212.43.123.18:41258
https://68.183.99.62:80
https://212.191.78.146:8080
https://37.18.74.13:3128
https://118.172.201.34:50071
https://31.46.164.88:8080
https://27.147.249.202:56219
https://68.183.187.79:8888
https://165.90.209.79:30573
https://210.16.84.102:81
https://213.32.252.120:45728
https://36.255.87.250:84
https://213.110.122.220:56871
https://202.93.227.14:53281
https://66.82.22.79:80
https://62.99.67.216:8080
https://164.115.22.45:8080
https://163.53.209.7:6666
https://203.76.220.226:40918
https://203.76.149.106:8080
https://200.152.78.48:38543
https://103.109.0.46:8080
https://203.63.235.254:8080
https://203.45.16.197:8080
https://203.202.254.206:51773
https://203.202.248.35:8080
https://200.105.215.18:33630
https://203.196.32.61:45305
https://118.175.207.205:61293
https://197.210.187.46:45753
https://62.182.114.164:40273
https://197.157.219.9:30885
https://195.9.188.78:53281
https://62.122.201.170:40714
https://195.69.221.198:54418
https://203.189.137.137:8080
https://62.106.122.90:36535
https://109.167.207.72:8080
https://203.174.13.158:8082
https://61.7.188.135:8080
https://195.189.71.187:36853
https://103.233.154.58:8080
https://203.150.128.215:8080
https://194.183.168.129:31385
https://160.2.52.234:8080
https://194.114.128.149:61213
https://193.59.27.71:36748
https://202.80.231.67:8080
https://119.82.252.25:56874
https://191.103.254.145:47324
https://202.63.242.20:56610
https://202.63.104.89:54297
https://159.8.114.37:8123
https://190.90.45.2:51064
https://159.8.114.34:8123
https://190.167.215.170:52479
https://202.131.234.142:46764
https://202.43.183.210:8080
https://202.43.183.210:80
https://168.205.140.228:8080
https://202.3.72.50:56242
https://103.239.254.70:61967
https://181.143.106.162:39617
https://159.148.3.177:8080
https://200.60.124.106:8080
https://186.47.46.30:33556
https://202.152.38.76:52740
https://186.46.6.233:46849
https://193.34.145.31:46558
https://202.154.190.234:8080
https://186.229.25.18:8080
https://94.75.125.119:8080
https://185.75.5.158:60819
https://202.150.136.213:3128
https://1.20.101.24:41064
https://201.82.1.129:8080
https://185.33.34.76:42293
https://186.192.17.242:8080
https://183.89.13.212:8080
https://202.142.158.114:8080
https://94.23.95.204:3128
https://140.227.230.89:60088
https://212.122.1.23:80
https://185.32.120.177:60724
https://117.240.238.230:80
https://185.251.33.194:39613
https://59.91.123.94:8080
https://59.91.121.113:35665
https://202.134.180.50:8080
https://183.88.130.51:8080
https://103.57.71.137:51774
https://186.248.170.82:53281
https://190.232.60.224:8080
https://59.153.18.170:53281
https://182.53.206.26:45336
https://201.76.3.230:8080
https://201.71.144.4:80
https://182.48.82.94:23500
https://182.253.175.79:8080
https://58.84.14.157:8080
https://157.119.117.129:35522
https://181.129.140.83:35232
https://36.66.172.121:39810
https://58.82.154.4:80
https://201.28.39.6:3128
https://154.73.109.83:53281
https://45.113.67.1:8080
https://154.73.108.81:53281
https://150.129.52.74:6666
https://150.107.143.81:9797
https://150.107.137.181:3128
https://149.56.191.12:8080
https://14.207.72.19:8080
https://14.141.73.10:8080
https://139.5.71.46:23500
https://139.255.58.94:8080
https://139.255.34.51:8080
https://138.197.133.151:7777
https://131.72.105.1:8080
https://131.196.192.85:999
https://131.196.192.160:8080
https://131.108.80.193:8081
https://128.199.139.123:6666
https://128.199.139.119:8086
https://128.199.139.116:8086
https://128.199.139.116:6666
https://125.27.10.150:36423
https://125.26.99.244:33510
https://125.26.165.17:30607
https://125.25.45.167:52557
https://124.41.240.203:55948
https://124.41.213.3:55089
https://124.41.211.196:36084
https://124.41.211.180:32861
https://124.158.175.30:8080
https://124.158.175.28:8080
https://124.158.173.133:8080
https://124.121.169.219:8213
https://122.116.232.79:40864
https://120.50.19.84:8080
https://119.82.253.175:31500
https://119.82.252.115:49085
https://119.235.19.42:38546
https://119.2.54.204:44860
https://119.110.209.94:3128
https://118.173.233.149:45160
https://118.163.55.229:60719
https://118.163.13.200:8080
https://118.106.145.247:80
https://117.4.247.218:3128
https://117.242.188.84:8080
https://117.206.155.158:8080
https://117.102.9.12:3128
https://116.212.129.58:52659
https://115.127.115.201:8080
https://114.6.88.238:60811
https://113.53.83.212:44664
https://113.161.207.105:60626
https://113.160.235.49:8080
https://113.130.126.2:52843
https://111.93.59.130:3129
https://110.77.200.142:8080
https://110.74.219.30:45198
https://110.39.194.67:8080
https://110.164.91.50:51065
https://109.200.234.85:53281
https://103.96.235.81:23500
https://103.90.47.1:8080
https://103.9.88.206:8080
https://103.9.188.72:443
https://103.87.236.46:41183
https://103.87.160.126:8080
https://103.84.234.118:80
https://103.80.81.229:3128
https://103.78.254.82:8080
https://103.75.34.125:49509
https://103.73.225.182:8080
https://103.73.102.130:8080
https://103.60.137.2:13406
https://103.37.81.92:42420
https://103.36.35.135:8080
https://103.36.100.248:8000
https://103.241.227.105:50313
https://103.239.254.114:30569
https://103.235.199.9:58198
https://103.224.5.5:54143
https://103.216.169.33:8080
https://103.215.177.158:8080
https://103.209.178.208:30004
https://103.14.198.193:83
https://103.114.61.150:8080
https://102.69.192.32:51962
https://101.109.83.194:8080
https://101.109.255.18:46545
https://101.109.245.228:8080
https://101.109.113.168:80
https://1.20.99.178:34781
https://1.10.189.84:35138
https://1.10.188.140:43327
https://95.136.51.249:8080
https://94.158.152.54:8080
https://83.29.230.249:8080
https://45.76.43.163:8080
https://41.207.251.194:8080
https://203.150.113.191:8080
https://217.151.236.54:8080
https://201.123.111.56:8080
https://197.234.179.102:3128
https://190.122.150.65:8080
https://183.88.129.131:8080
https://183.88.244.87:8080
https://177.94.206.67:60666
https://180.180.215.142:8080
https://176.119.134.44:23500
https://171.97.34.84:8213
https://154.73.137.157:38170
https://159.192.166.169:8080
https://159.203.44.177:3128
https://14.207.122.26:8080
https://150.107.143.241:9797
https://14.207.19.1:8080
https://14.207.192.226:8080
https://134.236.247.137:8080
https://131.255.11.122:8080
https://119.42.86.148:8080
https://119.15.93.38:8080
https://116.12.83.17:8080
https://109.86.121.118:46333
https://103.216.82.209:54806
https://109.198.193.173:8080
https://109.170.96.26:8080
https://109.110.73.106:32479
https://1.20.101.114:36956
https://103.105.125.6:84
https://101.108.32.203:8080
https://1.179.144.41:8080
https://101.108.244.111:8080
https://103.114.10.238:8080
https://91.214.128.243:23500
https://103.85.162.30:8080
https://193.178.50.49:3128
https://187.191.20.5:54375
https://103.74.108.145:49421
https://176.123.164.240:58488
https://118.99.98.201:8080
https://103.57.121.132:8080
https://103.110.109.81:3128
https://212.154.83.119:35116
https://46.99.255.235:8080
https://177.184.207.125:8080
https://62.122.207.97:3128
https://180.180.175.70:59692
https://176.62.185.72:45277
https://95.128.144.1:51449
https://36.255.86.232:83
https://195.242.179.23:8080
https://195.228.210.243:8080
https://81.20.204.72:3128
https://176.235.99.38:9090
https://103.60.137.2:148
https://91.210.178.161:8080
https://203.143.28.1:8080
https://103.49.53.1:81
https://45.231.100.17:9999
https://101.109.252.125:8080
https://188.242.5.172:8080
https://103.199.159.169:40049
https://103.252.117.225:8080
https://24.172.82.94:53281
https://85.222.191.222:36337
https://185.128.104.129:8080
https://80.106.247.145:53410
https://191.242.189.13:8080
https://103.66.176.81:51062
https://27.111.38.65:39850
https://181.119.69.14:8080
https://36.79.81.200:3128
https://96.87.184.101:43705
https://203.81.75.37:8080
https://103.42.218.94:8080
https://46.165.49.41:52967
https://125.209.115.186:8080
https://120.28.57.114:8080
https://202.129.184.227:80
https://45.166.84.6:8080
https://1.160.226.196:53281
https://103.216.82.203:6666
https://188.94.230.37:8080
https://212.33.28.51:8080
https://162.245.81.151:8811
https://103.129.195.1:8080
https://1.10.187.149:44976
https://154.66.122.90:40946
https://203.150.160.117:8080
https://201.149.100.17:8085
https://186.125.218.130:999
https://118.174.232.237:48665
https://183.91.87.36:3128
https://45.7.242.246:8080
https://183.89.180.182:8080
https://187.44.61.100:3128
https://103.87.236.169:8080
https://154.66.80.1:58461
https://185.108.141.49:8080
https://187.58.10.6:80
https://45.181.155.252:8080
https://45.162.72.3:9991
https://191.98.184.125:43144
https://14.207.79.240:8080
https://89.250.221.106:53281
https://148.103.231.162:3128
https://125.27.251.124:45861
https://118.96.223.190:8080
https://191.241.166.251:41288
https://118.99.73.73:8080
https://187.4.67.26:8080
https://129.146.181.251:3128
https://154.79.246.178:34577
https://103.94.122.254:8080
https://213.109.128.21:8080
https://94.28.123.59:8080
https://202.62.73.113:83
https://31.192.252.127:53281
https://103.87.236.181:8080
https://82.177.38.187:8080
https://176.241.89.36:38170
https://77.120.30.17:3128
https://121.101.191.190:63141
https://41.254.44.241:8080
https://41.50.88.181:8080
https://5.59.141.128:3128
https://23.80.121.202:30201
https://220.247.174.235:40768
https://36.89.194.113:38622
https://35.247.177.124:3128
https://36.255.87.241:84
https://187.141.164.242:31120
https://202.166.211.48:50034
https://170.246.84.14:3128
https://101.51.137.96:80
https://103.86.104.161:999
https://103.14.198.129:83
https://91.191.3.114:53281
https://49.156.44.138:8080
https://178.168.67.89:4645
https://103.135.47.253:8080
https://213.129.99.10:61557
https://165.255.215.170:8080
https://117.240.175.51:3128
https://113.53.29.218:45539
https://36.255.87.246:82
https://182.52.90.117:45535
https://181.188.166.82:8080
https://165.22.242.100:8000
https://103.109.97.22:44527
https://14.207.128.66:8080
https://14.207.28.103:8080
https://103.209.65.12:8080
https://180.148.4.194:8080
https://193.41.88.58:53281
https://193.86.229.230:8080
https://37.57.15.43:33761
https://69.10.47.1:8080
https://36.92.154.114:8080
https://140.227.202.194:6000
https://167.99.154.98:3128
https://103.57.186.101:8080
https://110.168.26.219:8118
https://91.214.179.5:8080
https://91.214.179.39:8080
https://91.214.179.27:8080
https://91.214.179.24:8080
https://91.214.179.13:8080
https://36.255.87.236:82
https://36.255.86.229:84
https://1.64.130.154:3128
https://177.222.251.162:33834
https://101.109.113.168:3128
https://185.193.56.17:44323
https://1.32.59.217:58451
https://212.73.69.6:59763
https://36.37.160.124:53919
https://36.92.116.26:8080
https://178.169.196.87:48834
https://182.253.86.95:8080
https://46.198.141.82:31870
https://185.32.165.78:8080
https://181.143.10.130:36535
https://190.94.18.210:53281
https://198.50.152.64:23500
https://178.216.0.168:33364
https://181.211.38.138:8080
https://103.221.254.125:51630
https://175.184.233.23:8080
https://187.243.248.86:8080
https://187.108.86.40:30175
https://186.56.99.103:53040
https://186.47.83.126:8080
https://186.233.104.164:8080
https://186.228.147.58:20183
https://186.226.183.170:30698
https://186.225.45.13:45974
https://186.216.81.21:31773
https://186.148.189.27:8080
https://185.99.64.75:52452
https://185.86.4.160:3128
https://185.61.92.207:35847
https://185.187.197.107:8080
https://182.52.238.52:50619
https://182.253.201.26:8080
https://165.16.4.156:8080
https://181.196.145.106:52241
https://180.178.94.20:8080
https://178.150.139.189:53708
https://178.128.209.194:8086
https://177.19.212.90:8080
https://176.113.225.69:8080
https://175.41.139.245:8080
https://171.96.211.222:8213
https://167.250.65.246:8080
https://167.172.41.222:6666
https://162.243.166.224:80
https://162.243.166.224:3128
https://159.89.49.60:80
https://157.245.192.150:8888
https://157.230.47.134:6666
https://157.230.41.255:44331
https://149.3.91.202:3128
https://143.255.142.80:8080
https://139.5.73.11:8080
https://183.88.109.130:8080
https://138.117.37.244:80
https://137.74.154.6:8080
https://18.197.101.105:3128
https://13.235.170.78:80
https://151.252.108.65:38069
https://128.199.139.123:8118
https://128.199.139.117:6666
https://128.199.139.114:8118
https://128.199.137.247:8888
https://128.199.137.247:6666
https://125.26.99.223:38308
https://124.158.105.58:3128
https://12.189.124.50:49587
https://117.247.190.141:80
https://117.197.127.98:8080
https://112.78.181.194:8080
https://109.169.21.204:8080
https://180.241.37.72:8080
https://103.47.93.238:51618
https://36.89.151.26:59760
https://193.85.228.182:43036
https://41.86.146.6:8888
https://103.9.134.53:65301
https://41.79.35.1:8080
https://202.137.10.180:48187
https://45.235.87.4:51996
https://85.113.39.89:81
https://103.89.244.98:8080
https://103.111.55.58:61234
https://36.89.89.7:8080
https://36.255.87.239:82
https://103.16.71.245:84
https://178.168.19.139:30736
https://185.46.223.198:23500
https://180.183.243.4:8080
https://168.196.204.18:52821
https://103.16.71.48:82
https://182.253.6.3:8080
https://131.72.140.70:3128
https://46.183.56.107:49725
https://103.14.199.225:84
https://182.253.252.3:39081
https://43.246.140.4:43091
https://45.162.82.244:8080
https://193.150.117.74:8000
https://183.88.219.206:41564
https://82.77.55.46:8080
https://181.198.42.229:80
https://138.219.223.166:3128
https://103.80.83.70:8080
https://177.137.193.67:8080
https://192.245.60.206:80
https://198.50.214.17:8585
https://78.157.254.58:51008
https://103.79.74.129:53879
https://82.81.169.142:80
https://47.244.10.218:80
https://14.207.122.180:8080
https://189.28.165.143:3128
https://36.72.132.148:8080
https://46.16.228.6:8080
https://46.20.59.11:8080
https://103.16.133.166:8080
https://103.59.212.93:8080
https://181.40.93.226:80
https://103.50.154.4:48564
https://109.196.15.142:49133
https://89.121.211.242:48614
https://45.112.22.97:82
https://162.220.108.59:80
https://159.203.119.11:3128
https://91.109.199.81:8080
https://185.217.184.102:8080
https://178.234.127.243:8080
https://181.143.73.34:53281
https://36.89.165.89:43139
https://190.75.46.238:8080
https://41.217.219.49:57243
https://103.88.221.105:35411
https://194.12.121.100:61600
https://36.92.180.240:80
https://103.137.192.77:84
https://193.150.117.61:8000
https://200.29.109.112:44749
https://190.104.255.5:8080
https://125.27.179.88:36127
https://118.175.226.30:42307
https://124.120.142.224:8080
https://85.198.250.135:3128
https://91.90.188.241:53533
https://87.255.70.183:8080
https://45.125.222.97:30569
https://45.235.87.155:8080
https://27.131.157.94:8080
https://27.123.1.185:8080
https://37.187.225.220:3128
https://194.8.136.62:55155
https://202.62.60.10:8080
https://195.211.39.107:3128
https://185.255.47.115:8080
https://185.86.4.55:3128
https://178.151.143.112:31260
https://118.172.201.59:52018
https://119.42.71.48:8080
https://110.77.231.44:8080
https://1.0.182.21:8080
https://1.179.184.158:56633
https://95.79.57.206:53281
https://94.40.90.10:34076
https://95.54.196.135:3128
https://93.153.173.98:80
https://91.187.75.48:59492
https://147.75.113.110:8080
https://14.207.75.152:8080
https://78.188.65.105:49743
https://85.173.20.31:8080
https://139.59.73.89:80
https://52.30.92.45:8086
https://58.8.190.187:8080
https://5.164.213.245:8080
https://139.255.25.106:80
https://134.35.26.194:8080
https://134.236.160.173:8080
https://43.239.152.233:8080
https://131.72.105.115:8080
https://131.72.105.108:8080
https://131.255.133.218:8080
https://36.89.187.193:50689
https://37.232.13.54:51296
https://125.25.33.226:8080
https://36.83.19.100:8080
https://31.173.0.249:41890
https://124.41.243.72:44716
https://124.41.213.211:60749
https://24.226.146.46:33031
https://220.247.174.234:40768
https://212.200.27.134:8080
https://207.180.233.138:3128
https://122.15.131.65:57873
https://203.113.103.54:8080
https://202.53.81.241:8080
https://119.76.140.166:8080
https://201.182.151.230:999
https://118.174.232.239:39258
https://118.174.232.181:8080
https://118.173.232.61:47115
https://118.172.227.89:60035
https://118.175.93.132:61684
https://200.105.209.118:443
https://195.175.74.254:8080
https://117.54.13.174:34190
https://188.43.52.166:47362
https://117.103.168.241:8080
https://186.159.2.241:43459
https://116.58.226.219:8080
https://185.169.17.254:8080
https://185.184.77.94:3128
https://114.31.15.62:80
https://114.5.24.14:8080
https://180.183.107.231:8080
https://180.183.225.146:8080
https://178.47.139.50:8080
https://112.78.170.28:8080
https://110.39.174.58:8080
https://112.78.43.230:808
https://110.77.201.51:8080
https://110.74.209.202:51491
https://190.15.207.242:8080
https://110.34.3.74:8080
https://109.75.67.153:44151
https://110.232.74.55:8080
https://109.237.147.213:37581
https://101.109.255.97:54623
https://134.249.167.184:53281
https://5.141.86.107:55528
https://105.27.116.46:31973
https://105.255.222.42:8080
https://209.250.250.124:12387
https://103.90.45.225:8080
https://157.230.35.166:8080
https://27.147.210.35:8080
https://103.76.190.210:49939
https://103.66.177.129:51062
https://109.74.132.190:55838
https://103.57.143.246:61148
https://103.44.136.9:46706
https://36.255.87.232:82
https://103.250.157.34:44611
https://122.248.45.35:53281
https://103.253.208.96:8080
https://209.250.250.124:10156
https://209.250.250.124:11600
https://103.239.253.218:31913
https://177.107.41.87:8080
https://183.88.238.243:8080
https://103.240.206.152:55740
https://196.207.237.156:80
https://185.121.2.31:8080
https://209.250.250.124:13349
https://103.221.254.102:31117
https://103.23.103.203:49497
https://103.220.206.110:59570
https://103.227.147.142:37581
https://103.217.156.9:8080
https://103.216.82.153:35101
https://103.205.128.73:43037
https://103.194.90.30:42915
https://103.16.71.249:83
https://103.16.71.249:82
https://96.30.53.125:3128
https://103.14.198.169:82
https://45.117.77.41:80
https://38.89.139.88:3128
https://103.16.71.228:84
https://103.14.198.29:84
https://103.14.197.238:8080
https://68.15.151.20:48678
https://103.15.167.124:41787
https://103.16.71.228:83
https://46.229.187.169:53281
https://192.140.42.28:39653
https://209.250.250.124:13772
https://113.11.3.10:8080
https://112.78.191.35:8080
https://103.131.16.125:8080
https://103.123.64.234:8080
https://167.71.249.181:8888
https://203.189.150.223:35287
https://103.112.63.121:8080
https://147.75.113.110:443
https://191.241.53.1:8080
https://103.105.209.30:8080
https://103.41.212.186:8080
https://103.85.217.1:33409
https://102.176.160.82:8080
https://102.176.160.107:8080
https://63.151.67.7:8080
https://24.55.137.179:57545
https://91.217.42.2:8080
https://103.221.254.2:40576
https://101.109.67.249:8080
https://103.105.40.161:16538
https://94.23.94.189:3128
https://102.64.6.230:51689
https://35.229.85.29:80
https://209.250.250.124:14846
https://209.250.250.124:12156
https://103.236.114.38:49638
https://100.21.163.30:80
https://103.28.57.122:8080
https://103.52.135.60:8080
https://201.151.79.30:8080
https://85.198.133.19:43157
https://101.109.26.56:8080
https://103.73.102.154:3128
https://103.82.43.233:51811
https://103.211.76.5:8080
https://136.228.128.164:53052
https://103.241.141.234:8080
https://189.89.148.174:3128
https://103.199.157.133:40052
https://93.179.209.210:57520
https://12.218.209.130:53281
https://58.82.154.4:8080
https://103.212.93.209:32374
https://102.68.130.162:8080
https://46.63.71.13:8080
https://103.21.163.86:35101
https://1.20.102.54:8080
https://103.21.163.84:35101
https://154.117.159.226:8080
https://103.90.47.33:8080
https://101.108.97.58:3128
https://154.0.12.233:8080
https://87.99.93.101:43944
https://81.198.119.241:61418
https://209.250.250.124:12273
https://182.253.193.34:8080
https://50.233.228.147:8080
https://1.10.189.107:51618
https://1.4.219.20:8080
https://87.99.93.100:43944
https://85.117.61.186:49929
https://197.211.245.50:53281